[FV][info][05/06/21][22:38:47][][] Logger succesfully initialized
[FV][info][05/06/21][22:38:48][][] Waiting on a client to connect
[FV][info][05/06/21][22:38:56][][] Stop button pushed
[FV][info][05/06/21][22:38:58][][] Waiting on a client to connect
[FV][info][05/06/21][22:39:01][][] Client connected, waiting on personal data
[FV][info][05/06/21][22:39:06][][] Data received succesfully, press the 'Capture' button to continue
[FV][info][05/06/21][22:39:23][][] Compare the captured image with the image in the client's data
[FV][info][05/06/21][22:39:23][][] Client's age = 22
[FV][info][05/06/21][22:39:23][][] The client is allowed to buy spirits
[FV][info][05/06/21][22:39:23][][] Face verification succesfully performed. The faces are the same? true
[FV][info][05/06/21][22:39:23][][] Push the 'Reset' button to continue
[FV][info][05/06/21][22:40:42][][] Face verification finished
[FV][info][05/06/21][22:40:42][][] Waiting on a client to connect
[FV][warning][05/06/21][22:40:42][operator()][/home/guido/Desktop/DIVFR/FV_server/src/nc/connection.cpp:193] Async_read header failed
[FV][info][05/06/21][22:41:00][][] Stop button pushed
[FV][info][05/06/21][22:41:02][][] Waiting on a client to connect
[FV][info][05/06/21][22:41:07][][] Stop button pushed
[FV][info][05/06/21][22:41:09][][] Changed path to image ../input/fv/images/user.jpg
[FV][info][05/06/21][22:41:12][][] Changed index of camera 0
[FV][info][05/06/21][22:41:15][][] Waiting on a client to connect
[FV][info][05/06/21][22:41:18][][] Client connected, waiting on personal data
[FV][info][05/06/21][22:41:20][][] Cancel button pushed
[FV][info][05/06/21][22:41:20][][] Waiting on a client to connect
[FV][warning][05/06/21][22:41:20][operator()][/home/guido/Desktop/DIVFR/FV_server/src/nc/connection.cpp:193] Async_read header failed
[FV][info][05/06/21][22:41:29][][] Stop button pushed
[FV][info][05/06/21][22:41:30][][] Waiting on a client to connect
