[FV][info][05/03/21][11:38:06][][] Logger succesfully initialized
[FV][info][05/03/21][11:38:08][][] Waiting on a client to connect
[FV][debug][05/03/21][11:38:10][][] Construct connection
[FV][info][05/03/21][11:38:10][][] Client connected, waiting on personal data
[FV][debug][05/03/21][11:38:10][][] Accepted client connection with address: 127.0.0.1
[FV][debug][05/03/21][11:38:11][][] Read header Succesfully, read 8 bytes and the header contains the value 111270
[FV][debug][05/03/21][11:38:11][][] Read id Succesfully, read 4 bytes and the message id is: 1
[FV][debug][05/03/21][11:38:11][][] Read payload Succesfully, read 111270 bytes
[FV][info][05/03/21][11:38:11][][] Received message, check for personal data
[FV][debug][05/03/21][11:38:11][][] Socket is closed
[FV][debug][05/03/21][11:38:11][][] Deconstruct connection
[FV][debug][05/03/21][11:38:11][][] [server_handler: disconnect_client()] Closed connection with client
[FV][warning][05/03/21][11:38:11][operator()][/home/guido/Desktop/DIVFR/DIVFR_server_v2/src/nc/connection.cpp:190] Async_read header failed
[FV][info][05/03/21][11:38:11][][] The message contains personal data
[FV][debug][05/03/21][11:38:17][][] Construct io_web_cam
[FV][debug][05/03/21][11:38:17][][] Deconstruct io_web_cam
[FV][debug][05/03/21][11:38:17][][] Opened webcam with index 0 succesfully
[FV][debug][05/03/21][11:38:18][][] Succesfully captured a frame from the webcam
[FV][debug][05/03/21][11:38:18][][] Get image
[FV][debug][05/03/21][11:38:23][][] Detected one face
[FV][debug][05/03/21][11:38:23][][] Image is set
[FV][debug][05/03/21][11:38:28][][] Detected one face
[FV][debug][05/03/21][11:38:28][][] Detected one face
[FV][debug][05/03/21][11:38:28][][] Get image cropped around the face
[FV][debug][05/03/21][11:38:28][][] Get image
[FV][debug][05/03/21][11:38:28][][] Create face embedding from input image
[FV][debug][05/03/21][11:38:28][][] Get image cropped around the face
[FV][debug][05/03/21][11:38:28][][] Created a face embedding
[FV][debug][05/03/21][11:38:28][][] Embedded image
[FV][debug][05/03/21][11:38:28][][] Get image cropped around the face
[FV][debug][05/03/21][11:38:28][][] Get face embedding
[FV][debug][05/03/21][11:38:28][][] Set face embedding 1
[FV][debug][05/03/21][11:38:28][][] Construct io_image
[FV][debug][05/03/21][11:38:28][][] Deconstruct io_web_cam
[FV][debug][05/03/21][11:38:28][][] Loaded image ../input/fv/images/user.jpg succesfully
[FV][debug][05/03/21][11:38:28][][] Get image
[FV][debug][05/03/21][11:38:41][][] Detected one face
[FV][debug][05/03/21][11:38:41][][] Image is set
[FV][debug][05/03/21][11:38:53][][] Detected one face
[FV][debug][05/03/21][11:38:53][][] Detected one face
[FV][debug][05/03/21][11:38:53][][] Get image cropped around the face
[FV][debug][05/03/21][11:38:53][][] Get image
[FV][debug][05/03/21][11:38:53][][] Create face embedding from input image
[FV][debug][05/03/21][11:38:53][][] Get image cropped around the face
[FV][debug][05/03/21][11:38:53][][] Created a face embedding
[FV][debug][05/03/21][11:38:53][][] Embedded image
[FV][debug][05/03/21][11:38:53][][] Get image cropped around the face
[FV][debug][05/03/21][11:38:53][][] Get face embedding
[FV][debug][05/03/21][11:38:53][][] Set face embedding 2
[FV][info][05/03/21][11:38:53][][] Compare the captured image with the received image
[FV][debug][05/03/21][11:38:53][][] Face embbedings 1 and 2 match
[FV][info][05/03/21][11:38:53][][] Person's age = 18
[FV][info][05/03/21][11:38:53][][] The person is 18 years or older!
[FV][info][05/03/21][11:38:53][][] Face verification succesfully performed.
[FV][info][05/03/21][11:38:53][][] Is the frontal face in both images of the same person? true
[FV][info][05/03/21][11:38:53][][] Push the 'Reset' button to continue
[FV][info][05/03/21][11:39:02][][] Face verification finished
[FV][debug][05/03/21][11:39:06][][] Construct connection
[FV][info][05/03/21][11:39:06][][] Client connected, waiting on personal data
[FV][debug][05/03/21][11:39:06][][] Accepted client connection with address: 127.0.0.1
[FV][debug][05/03/21][11:39:08][][] Read header Succesfully, read 8 bytes and the header contains the value 111270
[FV][debug][05/03/21][11:39:08][][] Read id Succesfully, read 4 bytes and the message id is: 1
[FV][debug][05/03/21][11:39:08][][] Read payload Succesfully, read 111270 bytes
[FV][info][05/03/21][11:39:08][][] Received message, check for personal data
[FV][debug][05/03/21][11:39:08][][] Socket is closed
[FV][debug][05/03/21][11:39:08][][] Deconstruct connection
[FV][warning][05/03/21][11:39:08][operator()][/home/guido/Desktop/DIVFR/DIVFR_server_v2/src/nc/connection.cpp:190] Async_read header failed
[FV][debug][05/03/21][11:39:08][][] [server_handler: disconnect_client()] Closed connection with client
[FV][info][05/03/21][11:39:08][][] The message contains personal data
[FV][debug][05/03/21][11:39:11][][] Construct io_web_cam
[FV][debug][05/03/21][11:39:11][][] Deconstruct io_image
[FV][debug][05/03/21][11:39:11][][] Opened webcam with index 0 succesfully
[FV][debug][05/03/21][11:39:12][][] Succesfully captured a frame from the webcam
[FV][debug][05/03/21][11:39:12][][] Get image
[FV][debug][05/03/21][11:39:17][][] Detected one face
[FV][debug][05/03/21][11:39:17][][] Image is set
[FV][debug][05/03/21][11:39:22][][] Detected one face
[FV][debug][05/03/21][11:39:22][][] Detected one face
[FV][debug][05/03/21][11:39:22][][] Get image cropped around the face
[FV][debug][05/03/21][11:39:22][][] Get image
[FV][debug][05/03/21][11:39:22][][] Create face embedding from input image
[FV][debug][05/03/21][11:39:22][][] Get image cropped around the face
[FV][debug][05/03/21][11:39:22][][] Created a face embedding
[FV][debug][05/03/21][11:39:22][][] Embedded image
[FV][debug][05/03/21][11:39:22][][] Get image cropped around the face
[FV][debug][05/03/21][11:39:22][][] Get face embedding
[FV][debug][05/03/21][11:39:22][][] Set face embedding 1
[FV][debug][05/03/21][11:39:22][][] Construct io_image
[FV][debug][05/03/21][11:39:22][][] Deconstruct io_web_cam
[FV][debug][05/03/21][11:39:22][][] Loaded image ../input/fv/images/user.jpg succesfully
[FV][debug][05/03/21][11:39:22][][] Get image
[FV][debug][05/03/21][11:39:34][][] Detected one face
[FV][debug][05/03/21][11:39:34][][] Image is set
[FV][debug][05/03/21][11:39:47][][] Detected one face
[FV][debug][05/03/21][11:39:47][][] Detected one face
[FV][debug][05/03/21][11:39:47][][] Get image cropped around the face
[FV][debug][05/03/21][11:39:47][][] Get image
[FV][debug][05/03/21][11:39:47][][] Create face embedding from input image
[FV][debug][05/03/21][11:39:47][][] Get image cropped around the face
[FV][debug][05/03/21][11:39:47][][] Created a face embedding
[FV][debug][05/03/21][11:39:47][][] Embedded image
[FV][debug][05/03/21][11:39:47][][] Get image cropped around the face
[FV][debug][05/03/21][11:39:47][][] Get face embedding
[FV][debug][05/03/21][11:39:47][][] Set face embedding 2
[FV][info][05/03/21][11:39:47][][] Compare the captured image with the received image
[FV][debug][05/03/21][11:39:47][][] Face embbedings 1 and 2 match
[FV][info][05/03/21][11:39:47][][] Person's age = 18
[FV][info][05/03/21][11:39:47][][] The person is 18 years or older!
[FV][info][05/03/21][11:39:47][][] Face verification succesfully performed.
[FV][info][05/03/21][11:39:47][][] Is the frontal face in both images of the same person? true
[FV][info][05/03/21][11:39:47][][] Push the 'Reset' button to continue
