[FV][info][05/05/21][23:11:14][][] Logger succesfully initialized
[FV][debug][05/05/21][23:11:36][][] Construct connection
[FV][debug][05/05/21][23:11:36][][] Accepted client connection with address: 127.0.0.1
[FV][warning][05/05/21][23:11:36][operator()][/home/guido/Desktop/DIVFR/FV_server/src/nc/connection.cpp:67] Handshake with client failed
[FV][debug][05/05/21][23:11:43][][] client is still connected, do a disconnect
[FV][debug][05/05/21][23:11:43][][] Socket is closed
[FV][debug][05/05/21][23:11:43][][] Deconstruct connection
[FV][debug][05/05/21][23:11:43][][] [server_handler: disconnect_client()] Closed connection with client
